…
## What is mean total number of steps taken per day?

Calculate the total number of steps taken per day

```r
step_count <- activity %>%
        group_by(date) %>%
        summarise(total_step_count = sum(steps))
step_count
```

```
## # A tibble: 61 x 2
##    date       total_step_count
##    <date>                <dbl>
##  1 2012-10-01               NA
##  2 2012-10-02              126
##  3 2012-10-03            11352
##  4 2012-10-04            12116
##  5 2012-10-05            13294
##  6 2012-10-06            15420
##  7 2012-10-07            11015
##  8 2012-10-08               NA
##  9 2012-10-09            12811
## 10 2012-10-10             9900
## # ... with 51 more rows
```
…
Which 5-minute interval, on average across all the days in the dataset, contains the maximum number of steps?

```r
ave_steps["average_step_count" == max("average_step_count"), ]
```

```
## # A tibble: 288 x 2
##    interval average_step_count
##       <dbl>              <dbl>
##  1        0             1.72  
##  2        5             0.340 
##  3       10             0.132 
##  4       15             0.151 
##  5       20             0.0755
##  6       25             2.09  
##  7       30             0.528 
##  8       35             0.868 
##  9       40             0     
## 10       45             1.47  
## # ... with 278 more rows
```
…
